
setup_vision = yes
government = tribal

add_government_reform = brown_orc_horde

government_rank = 1

primary_culture = brown_orc

religion = old_dookan

technology_group = tech_orcish

capital = 4521



1421.1.1 = {

	monarch = {

		name = "Ordash"

		dynasty = "Thunderfist"

		birth_date = 1410.10.4

		adm = 3

		dip = 4

		mil = 4

	}

}