country_decisions = {
	escanni_wars_victor_requirements = {
		major = yes
		
		potential = {
			ai = no
			has_global_flag = escanni_wars_global_flag
			OR = {
				culture_group = escanni
				primary_culture = marrodic
				primary_culture = stone_dwarf
				primary_culture = iron_dwarf
				primary_culture = newfoot_halfling
			}
			capital_scope = {
				OR  = {
					region = south_castanor_region
					region = west_castanor_region
					region = inner_castanor_region
					area = cursewood_area
					area = whistlevale_area
				}
			}
			is_subject = no
		}
		
		provinces_to_highlight = {
			OR = {
				province_id = 831
				province_id = 832
				province_id = 833
			}
			NOT = { owned_by = ROOT }
		}
		
		allow = {
			always = no
			num_of_owned_provinces_with = {
				value = 100
				
				OR = {
					region = south_castanor_region
					region = west_castanor_region
					region = inner_castanor_region
					area = cursewood_area
					area = whistlevale_area
				}
			}
			#Own Castonath
			owns = 831
			owns = 832
			owns = 833
		}
		
		effect = {
			
		}
	}
}