
# Do not change tags in here without changing every other reference to them.
# If adding new dieties, make sure they are uniquely named.

castellos =
{
	legitimacy = 0.5
	republican_tradition = 0.15
	devotion = 0.5
	horde_unity = 0.5
	country_admin_power = 1
	
    allow = { 
        OR = {
                religion = cannorian_pantheon
                religion = regent_court
        }
		NOT = { has_global_flag = "castellos_is_dead_pantheonic_council" }
    }
	
	sprite = 1
	
	ai_will_do = {
		factor = 1
		modifier = {
		factor = 3
			personality = ai_balanced
		}
		modifier = {
			factor = 2
			personality = ai_capitalist
		}
		modifier = {
			factor = 1.2
			government = monarchy
		}
		modifier = {
			factor = 1.5
			culture_group = escanni
		}
		modifier = {
			factor = 0.25
			has_global_flag = "castellos_is_dead"
		}
	}
}

the_dame =
{
	production_efficiency = 0.1
	idea_cost = -0.1
	
    allow = { 
        OR = {
                religion = cannorian_pantheon
                religion = regent_court
        }
    }
	
	sprite = 2
	
	ai_will_do = {
		factor = 1
		modifier = {
			factor = 2
			personality = ai_capitalist
		}
		modifier = {
			factor = 2
			personality = ai_balanced
		}
		modifier = {
			factor = 1.5
			personality = ai_diplomat
		}
		modifier = {
			factor = 0.5
			personality = ai_militarist
		}
		modifier = {
			factor = 2
			primary_culture = west_damerian	#Kingdom of Dameria dudes
		}
		modifier = {
			factor = 2
			primary_culture = east_damerian
		}
		modifier = {
			factor = 1.3
			primary_culture = vernman
		}
		modifier = {
			factor = 1.3
			primary_culture = pearlsedger	#Lesser boys of the Kingdom of Dameria
		}
		modifier = {
			factor = 5
			tag = A41	#Damish Temple
		}
		modifier = {
			factor = 3
			tag = A85	#Magisterium, I mean she's the goddess of magic after all
		}
		modifier = {
			factor = 2
			culture_group = gnomish
		}
	}
}

corin =
{
	leader_land_shock = 1
	land_morale = 0.05
	
    allow = { 
        OR = {
                religion = cannorian_pantheon
                religion = regent_court
		}
		# Modified for the Adenica mission tree - originally was just:
		#NOT = { is_religion_enabled = corinite }
		#NOT = { has_global_flag = "crimson_deluge" }
		###
		OR = { 		#corinite doesnt exist
			AND = {
				NOT = { is_religion_enabled = corinite }
				NOT = { has_global_flag = "crimson_deluge" }
			}
			has_global_flag = "upgraded_adean_admin"
		}
		has_global_flag = "corins_ascension" #Requires 1445 Pantheonic Council event
	}
    
	sprite = 3
	
	ai_will_do = {
		factor = 1
		modifier = {
			factor = 3
			personality = ai_militarist
		}	
		modifier = {
			factor = 0.5
			personality = ai_capitalist
		}		
		modifier = {
			factor = 2
			has_reform = adventurer_reform
		}
		modifier = {
			factor = 5
			tag = B02	#Corintar
		}
		modifier = {
			factor = 1.5
			culture_group = escanni
		}
	}
}

adean =
{
	cavalry_power = 0.2
	prestige = 1
	
    allow = { 
        OR = {
                religion = cannorian_pantheon
                religion = regent_court
		}
		# For the Adenica mission tree
		NOT = { has_global_flag = "upgraded_adean_war" }
		NOT = { has_global_flag = "upgraded_adean_admin" }
    }
	sprite = 4
	
	ai_will_do = {
		factor = 1
		modifier = {
			factor = 2
			personality = ai_militarist
		}
		modifier = {
			factor = 0.5
			personality = ai_colonialist
		}
		modifier = {
			factor = 1.5
			culture_group = escanni
		}
		modifier = {
			factor = 1.5
			culture_group = lencori
		}
		modifier = {
			factor = 10 
			tag = B58	#Adenica
		}
	}
}

munas_moonsinger =
{
	colonist_placement_chance = 0.1
	leader_naval_manuever = 1
	
    allow = { 
        OR = {
                religion = cannorian_pantheon
                religion = regent_court
        }
		NOT = { has_country_flag = ibevar_new_faith }
		NOT = { has_country_flag = upgraded_munas_muse }
    }
	sprite = 5
	
	ai_will_do = {
		factor = 1
		modifier = {
			factor = 2
			personality = ai_diplomat
		}	
		modifier = {
			factor = 2
			personality = ai_colonialist
		}		
		modifier = {
			factor = 0.5
			personality = ai_capitalist
		}		
		modifier = {
			factor = 1.5
			primary_culture = west_damerian
		}	
		modifier = {
			factor = 1.5
			primary_culture = east_damerian
		}	
		modifier = {
			factor = 2
			culture_group = elven
		}	
	}
}

munas_moonsinger_ibevar =
{
	development_cost = -0.1
	trade_efficiency = 0.1
	
    allow = { 
        OR = {
                religion = cannorian_pantheon
                religion = regent_court
        }
		has_country_flag = ibevar_new_faith
    }
	sprite = 5
	
	ai_will_do = {
		factor = 1
		modifier = {
			factor = 2
			personality = ai_diplomat
		}	
		modifier = {
			factor = 2
			personality = ai_colonialist
		}		
		modifier = {
			factor = 0.5
			personality = ai_capitalist
		}		
		modifier = {
			factor = 1.5
			primary_culture = west_damerian
		}	
		modifier = {
			factor = 1.5
			primary_culture = east_damerian
		}	
		modifier = {
			factor = 2
			culture_group = elven
		}
		modifier = {
			factor = 100
			always = yes
		}
	}
}

ara =
{
	trade_efficiency = 0.1
	global_tax_modifier = 0.1
	
    allow = { 
        OR = {
                religion = cannorian_pantheon
                religion = regent_court
        }
    }
	sprite = 6
	
	ai_will_do = {
		factor = 1
		modifier = {
			factor = 3
			personality = ai_capitalist
		}	
		modifier = {
			factor = 2
			personality = ai_colonialist
		}	
		modifier = {
			factor = 0.5
			personality = ai_militarist
		}		
		modifier = {
			factor = 1.2
			government = republic
		}
		modifier = {
			factor = 2
			primary_culture = crownsman
		}	
		modifier = {
			factor = 10
			tag = A53	#Aramari Temple
		}
		modifier = {
			factor = 5
			OR = {
				tag = H44 #Shining Circle
				tag = H45 #Beggaston
			}
		}	
	}
}


balgar =
{
	build_time = -0.25
	defensiveness = 0.1
	
    allow = { 
        OR = {
                religion = cannorian_pantheon
                religion = regent_court
        }
	# For the Silverforge mission tree
	NOT = { has_country_flag = bal_hyl_high_temple }
    }
	sprite = 7
	
	ai_will_do = {
		factor = 1
		modifier = {
			factor = 3
			personality = ai_capitalist
		}
		modifier = {
			factor = 0.5
			personality = ai_militarist
		}
		modifier = {
			factor = 2
			culture_group = dwarven
		}
		modifier = {
			factor = 5
			tag = G94 # Balgabar
		}
		modifier = {
			factor = 1.5
			tag = B36 # Marrhold
		}
		modifier = {
			factor = 5
			tag = A73 #Silverforge
		}
	}
}

esmaryal =
{
	diplomatic_annexation_cost = -0.2
	country_diplomatic_power = 1
	
    allow = { 
        OR = {
                religion = cannorian_pantheon
                religion = regent_court
        }
    }
	sprite = 8
	
	ai_will_do = {
		factor = 1
		modifier = {
			factor = 1.5
			personality = ai_diplomat
		}
		modifier = {
			factor = 1.3
			personality = ai_militarist
		}
		modifier = {
			factor = 0.5
			personality = ai_capitalist
		}
		modifier = {
			factor = 2
			primary_culture = esmari
		}
		modifier = {
			factor = 2
			has_heir = no
			government = monarchy
			ruler_age = 40	#old ruler
		}
		modifier = {
			factor = 1.5
			culture_group = halfling
		}
	}
}


ryala =
{
	prestige_decay = -0.01
	diplomatic_upkeep = 1
	
    allow = { 
        OR = {
                religion = cannorian_pantheon
                religion = regent_court
        }
		NOT = { has_country_flag = "upgraded_ryala_muse" }
    }
	sprite = 9
	
	ai_will_do = {
		factor = 1
		modifier = {
			factor = 3
			personality = ai_diplomat
		}	
		modifier = {
			factor = 0.5
			personality = ai_militarist
		}		
		modifier = {
			factor = 1.5
			primary_culture = esmari
		}	
		modifier = {
			factor = 5
			tag = A43 # Ryalan Temple
		}
	}
}

minara =
{
	ae_impact = -0.05
	improve_relation_modifier = 0.15
	
    allow = { 
        OR = {
                religion = cannorian_pantheon
                religion = regent_court
        }
    }
	sprite = 10
	
	ai_will_do = {
		factor = 1
		modifier = {
			factor = 2
			personality = ai_diplomat
		}	
		modifier = {
			factor = 1.5
			personality = ai_militarist
		}		
		modifier = {
			factor = 0.5
			personality = ai_balanced
		}	
		modifier = {
			factor = 2
			primary_culture = esmari
		}	
		modifier = {
			factor = 1.5
			primary_culture = high_lorentish
		}	
		modifier = {
			factor = 5
			tag = A10	#Minaran Temple
		}
	}
}

falah =
{
	movement_speed = 0.1
	army_tradition = 0.5
	
    allow = { 
        OR = {
                religion = cannorian_pantheon
                religion = regent_court
        }
    }
	sprite = 11
	
	ai_will_do = {
		factor = 1
		modifier = {
			factor = 2
			personality = ai_militarist
		}
		modifier = {
			factor = 0.5
			personality = ai_capitalist
		}
		modifier = {
			factor = 1.5
			culture_group = elven
		}
		modifier = {
			factor = 1.2
			culture_group = anbennarian
		}
		modifier = {
			factor = 1.5
			primary_culture = blue_reachman
		}
		modifier = {
			factor = 1.5
			primary_culture = old_alenic
		}
	}
}

nerat =
{
	global_unrest = -1
	manpower_recovery_speed = 0.1	
	
    allow = { 
        OR = {
                religion = cannorian_pantheon
                religion = regent_court
        }
    }
	sprite = 12
	
	ai_will_do = {
		factor = 1
		modifier = {
			factor = 2
			personality = ai_capitalist
		}
		modifier = {
			factor = 2
			personality = ai_militarist
		}
		modifier = {
			factor = 0.5
			personality = ai_diplomat
		}
		modifier = {
			factor = 2
			primary_culture = corvurian
		}
		modifier = {
			factor = 10
			OR = {
				tag = H42 #Onyx Legion
				tag = H43 #Neratica
			}
		}
	}
}
	
nathalyne =
{
	spy_offence = 0.25
	privateer_efficiency = 0.2
	
    allow = { 
        OR = {
                religion = cannorian_pantheon
                religion = regent_court
        }
    }
	sprite = 13
	
	ai_will_do = {
		factor = 1
		modifier = {
			factor = 2
			personality = ai_capitalist
		}	
		modifier = {
			factor = 2
			personality = ai_diplomat
		}	
		modifier = {
			factor = 1.2
			government = republic
		}
		modifier = {
			factor = 0.5
			personality = ai_militarist
		}			
		modifier = {
			factor = 5
			tag = A74	#Nathalaire
		}
	}
	
}

adean_adenica_admin =
{
	cavalry_power = 0.20
	prestige = 1
	country_admin_power = 1
	
    allow = { 
        OR = {
            religion = cannorian_pantheon
            religion = regent_court
		}
		has_global_flag = "upgraded_adean_admin"
    }
	sprite = 4
	
	ai_will_do = {
		factor = 1
		modifier = {
			factor = 2
			personality = ai_militarist
		}
		modifier = {
			factor = 0.5
			personality = ai_colonialist
		}
		modifier = {
			factor = 2
			culture_group = escanni
		}
		modifier = {
			factor = 1.5
			culture_group = lencori
		}
		modifier = {
			factor = 3
			personality = ai_balanced
		}
		modifier = {
			factor = 2
			personality = ai_capitalist
		}
		modifier = {
			factor = 1.2
			government = monarchy
		}
		modifier = {
			factor = 10 
			tag = B58	#Adenica
		}
	}
}

adean_adenica_war =
{
	cavalry_power = 0.20
	prestige = 1
	discipline = 0.05
	
    allow = { 
        OR = {
            religion = cannorian_pantheon
            religion = regent_court
		}
		has_global_flag = "upgraded_adean_war"
    }
	sprite = 4
	
	ai_will_do = {
		factor = 1
		modifier = {
			factor = 2
			personality = ai_militarist
		}
		modifier = {
			factor = 0.5
			personality = ai_colonialist
		}
		modifier = {
			factor = 1.5
			culture_group = escanni
		}
		modifier = {
			factor = 1.5
			culture_group = lencori
		}
		modifier = {
			factor = 10 
			tag = B58	#Adenica
		}
	}
}

ryala_seinathil_muse =
{
	prestige_decay = -0.02
	diplomatic_upkeep = 2
	
    allow = { 
        OR = {
                religion = cannorian_pantheon
                religion = regent_court
		}
		has_country_flag = "upgraded_ryala_muse"
    }
	sprite = 9
	
	ai_will_do = {
		factor = 1
		modifier = {
			factor = 3
			personality = ai_diplomat
		}	
		modifier = {
			factor = 0.5
			personality = ai_militarist
		}		
		modifier = {
			factor = 1.5
			primary_culture = esmari
		}	
		modifier = {
			factor = 5
			tag = A43 # Ryalan Temple
		}
	}
}

munas_seinathil_muse =
{
	colonist_placement_chance = 0.15
	leader_naval_manuever = 1
	prestige = 1
	
    allow = { 
        OR = {
                religion = cannorian_pantheon
                religion = regent_court
        }
		has_country_flag = "upgraded_munas_muse"
    }
	sprite = 5
	
	ai_will_do = {
		factor = 1
		modifier = {
			factor = 2
			personality = ai_diplomat
		}	
		modifier = {
			factor = 2
			personality = ai_colonialist
		}		
		modifier = {
			factor = 0.5
			personality = ai_capitalist
		}		
		modifier = {
			factor = 1.5
			primary_culture = west_damerian
		}	
		modifier = {
			factor = 1.5
			primary_culture = east_damerian
		}	
		modifier = {
			factor = 2
			culture_group = elven
		}	
	}
}

balgar_bal_hyl =
{
	build_time = -0.40
	defensiveness = 0.20
	monthly_splendor = 1
	
    allow = { 
        OR = {
                religion = cannorian_pantheon
                religion = regent_court
	}
	# For the Silverforge mission tree
	has_country_flag = bal_hyl_high_temple
 
    }
	sprite = 7
	
	ai_will_do = {
		factor = 1
		modifier = {
			factor = 3
			personality = ai_capitalist
		}
		modifier = {
			factor = 0.5
			personality = ai_militarist
		}
		modifier = {
			factor = 2
			culture_group = dwarven
		}
		modifier = {
			factor = 5
			tag = G94 # Balgabar
		}
		modifier = {
			factor = 1.5
			tag = B36 # Marrhold
		}
		modifier = {
			factor = 5 
			tag = A73 #Silverforge
		}
	}
}