namespace = aw_wendigo

#The Adventurers Wanted uses a strict ID system to make the system easier to author content for
#The IDs below 100 are core utility systems that are usually straight copies or modifications of how the AW system works, such as monsters being able to migrate and be defeated by adventurers.
#The IDs above 100 are more unique situations for the specific encounter, but they should correlate with the numbers from above: if ID 10s deal with migration, then ID 110s should be the unique events to do with migration - for example bribing a Thieves Guild to GTFO your country
#Crazy and more uniques ones that dont conform to the utilities should be ID 200

#USE THE anb_aw_wendigo TO SEE A SIMPLE COPY-PASTABLE FORMAT IN ADDITION TO STUFF LIKE MIGRATION STYLES ETC
#Search for CHANGEABLE for the criteria you should change in that file and this one

#################################################################
# Welcome to the master file for the Adventurers Wanted System. In the comments below you'll see copy-pastable events for you to choose, different migration styles as well as prebuilt events to handle stuff like spawning rebellions
#################################################################

#0 - spawn in province
province_event = {
    id = aw_wendigo.0
    title = aw_wendigo.0.t
    desc = aw_wendigo.0.d
    picture = COMET_SIGHTED_eventPicture
    goto = ROOT
    
    is_triggered_only = yes
    #hidden = yes
    
    #yup thats happening
    option = {
        name = aw_basic.0.a
        ai_chance = { 
            factor = 1 
        }
        add_permanent_province_modifier  = {
            name = aw_wendigo_1
            duration = -1  
        }

        custom_tooltip = aw_how_to_get_more_adventurer_removal_chance_tooltip
    }
}


#1 - event manager, called by on_actions. This happens ONCE per pulse. If you have 7 of these, it still only fires the manager once
country_event = {
    id = aw_wendigo.1
    title = aw_wendigo.1.t
    desc = aw_wendigo.1.d
    picture = COMET_SIGHTED_eventPicture
    
    hidden = yes
    is_triggered_only = yes
    
    trigger = {
        any_owned_province = {
            OR = { 
                has_province_modifier = aw_wendigo_1
                has_province_modifier = aw_wendigo_2
                has_province_modifier = aw_wendigo_3
            }
        }
    }

    mean_time_to_happen = {
        days = 1
        modifier = {
            factor = 2
            num_of_owned_provinces_with = {
                value = 3
                OR = { 
                    has_province_modifier = aw_wendigo_1
                    has_province_modifier = aw_wendigo_2
                    has_province_modifier = aw_wendigo_3
                }
            }
        }
    }

    immediate = {
        random_owned_province = {
            limit = {
                OR = { 
                    has_province_modifier = aw_wendigo_1
                    has_province_modifier = aw_wendigo_2
                    has_province_modifier = aw_wendigo_3
                }
            }
            save_event_target_as = aw_wendigo_target
        }
    }
    
	
	option = {
        event_target:aw_wendigo_target = {
            random_list = {

                #20 - natural removal - MODIFIED: only for unconfirmed sightings. which are mostly duds
                25 = {
                    modifier = {
                        factor = 2.5
                        has_province_modifier = aw_wendigo_1
                    }
                    province_event = { id = aw_wendigo.20 }    #Natural removal
                }

                #21 - adventurer removal
                15 = {
                    #Base modifiers

                    #more likely if generous quest rewards/adverturer nation
                    modifier = {
                        factor = 2
                        OR = {
                            owner = { has_estate_privilege = estate_adventurers_generous_quest_rewards }
                            owner = { has_adventurer_reform = yes }
                        }
                    }

                    #more likely if loyal
                    modifier = {
                        factor = 2
                        owner = {
                            estate_loyalty = {
                                estate = estate_adventurers
                                loyalty = 60
                            }
                        }
                    }

                    #more likely if high influence
                    modifier = {
                        factor = 2
                        owner = {
                            estate_influence = {
                                estate = estate_adventurers
                                influence = 60
                            }
                        }
                    }
                    #small influence boost at 30
                    modifier = {
                        factor = 1.5
                        owner = {
                            estate_influence = {
                                estate = estate_adventurers
                                influence = 30
                            }
                        }
                    }
                    #adventurer type sponsorships
                    modifier = {
                        factor = 1.5
                        owner = {
                            has_estate_privilege = estate_adventurers_sponsor_monster_hunters
                        }
                    }
                    modifier = {
                        factor = 2
                        owner = {
                            has_estate_privilege = estate_adventurers_sponsor_beast_slayers
                        }
                    }
                    province_event = { id = aw_wendigo.21 }
                }


                #24 - monstrous nation removal
                20 = {
                    modifier = {
                        #only want this to ever be part of the equation if you are monstrous
                        factor = 0
                        NOT = { owner = { has_country_modifier = monstrous_nation } }
                    }
                    #Base modifiers
                    province_event = { id = aw_wendigo.24 }
                }

                #30 - natural tier up - MODIFIED: as this relies on lots of dud wendigos
                30 = {
                   #Specific modifiers
                    modifier = {    #dont consider if this is already revealed
                        factor = 0
                        has_province_modifier = aw_wendigo_2
                    }
                    province_event = { id = aw_wendigo.30 }   
                }

                #120 - Knights kill wendigo
                10 = {
                    province_event = { id = aw_wendigo.120 }   
                }

                #121 - Hostile Knight kills wendigo. Malus nobility loyalty
                10 = {
                    province_event = { id = aw_wendigo.121 }   
                }

                #200 - Wendigo attacks
                10 = {
                    province_event = { id = aw_wendigo.200 }   
                }

                #201 - Wendigo slaughter village
                10 = {
                    province_event = { id = aw_wendigo.201 }   
                }

                #202 - Sightings, Wendigo cultist rituals
                10 = {
                    modifier = {
                        factor = 2
                        owner = {
                            NOT = { stability = 1 }
                        }
                    }
                    province_event = { id = aw_wendigo.202 }   
                }

                #203 - Wendigo attacks teenagers in house -1 stability
                10 = {
                    province_event = { id = aw_wendigo.203 }   
                }

                #204 - Knights dishonoured by wendigo hunt failure
                10 = {
                    province_event = { id = aw_wendigo.204 }   
                }
            }
        }
	}
    
}


#2 - notification of advanturers wanted spawning

############## 10s - Migration and Propagation ###################

#10 - Base migration


#11 - migration target notification if it goes to other country

#13 - Base propagation

#14 - propagation target notification


#15 - Migrate to non monstrous if monstrous nation is owner (if its applicable to monsters, like wyverns etc, then this is fine to remove, else keep)


############## 20s - Removal/Tier Down ###################

#20 - natural removal - MODIFIED tier 1 only, sightings not true
province_event = {
    id = aw_wendigo.20
    title = aw_wendigo.20.t
    desc = aw_wendigo.20.d
    picture = COMET_SIGHTED_eventPicture
    goto = ROOT
    
    hidden = no
    is_triggered_only = yes
    
    trigger = {
        OR = {
            has_province_modifier = aw_wendigo_1
        }
    }
    
    option = {
 
        name = aw_wendigo.20.a
        ai_chance = { factor = 100 }

        remove_province_modifier = aw_wendigo_1
        remove_province_modifier = aw_wendigo_2
        remove_province_modifier = aw_wendigo_3

    }
}

#21 - adventurer removal
province_event = {
    id = aw_wendigo.21
    title = aw_wendigo.21.t
    desc = aw_wendigo.21.d
    picture = COMET_SIGHTED_eventPicture
    goto = ROOT
    
    hidden = no
    is_triggered_only = yes
    
    trigger = {
        owner = { has_estate = estate_adventurers }
        OR = {
            has_province_modifier = aw_wendigo_2
            has_province_modifier = aw_wendigo_3
        }
    }
    
    option = {
        # oh, thank goodness
        name = aw_wendigo.21.a
        ai_chance = { factor = 100 }

        remove_province_modifier = aw_wendigo_1
        remove_province_modifier = aw_wendigo_2
        remove_province_modifier = aw_wendigo_3

        owner = {
            add_estate_influence_modifier = {
                estate = estate_adventurers
                desc = EST_VAL_AW_RESOLVED_ADVENTURERS_WANTED_ENCOUNTER
                duration = 3650
                influence = 5
            }
        }

        owner = { add_prestige_excess_to_splendour_effect = { VAL=10 } }

    }
}

#22 - natural tier down


#23 - adventurer tier down


#24 - monstrous nation removal
province_event = {
    id = aw_wendigo.24
    title = aw_wendigo.24.t
    desc = aw_wendigo.24.d
    picture = COMET_SIGHTED_eventPicture
    goto = ROOT
    
    hidden = no
    is_triggered_only = yes
    
    trigger = {
        owner = { has_country_modifier = monstrous_nation }

        OR = {
            has_province_modifier = aw_wendigo_2
            has_province_modifier = aw_wendigo_3
        }
    }
    
    option = {
 
        name = aw_wendigo.24.a
        ai_chance = { factor = 100 }

        remove_province_modifier = aw_wendigo_1
        remove_province_modifier = aw_wendigo_2
        remove_province_modifier = aw_wendigo_3

    }
}

#25 - monstrous natural tier down. keep if you want, or just rely on removal

############## 30s - Tier Up ###################

#30 - natural tier up - MODIFIER: unconfirmed becomes real
province_event = {
    id = aw_wendigo.30
    title = aw_wendigo.30.t
    desc = aw_wendigo.30.d
    picture = COMET_SIGHTED_eventPicture
    goto = ROOT
    
    hidden = no
    is_triggered_only = yes
    
    trigger = {
        OR = { 
            has_province_modifier = aw_wendigo_1 
        }
    }
    option = {
        name = aw_wendigo.30.a
        ai_chance = { factor = 100 }
        if = {
            limit = { 
                has_province_modifier = aw_wendigo_1
            }
            remove_province_modifier = aw_wendigo_1
            add_permanent_province_modifier  = {
                name = aw_wendigo_2
                duration = -1  
            }
        }

        custom_tooltip = aw_how_to_get_more_adventurer_removal_chance_tooltip   #should be added for each increase of level
    }
}

############## 40s - Other Utility ###################

#40 - convert to pop if tolerating


#41 - convert to pop, monstrous subjugation



############## 110s - Special Migration & Propagation ###################



############## 120s - Special Removal/Tier Down ###################

#120 - Knights kill wendigo
province_event = {
    id = aw_wendigo.120
    title = aw_wendigo.120.t
    desc = aw_wendigo.120.d
    picture = NOBLE_ESTATE_eventPicture
    goto = ROOT
    
    hidden = no
    is_triggered_only = yes
    
    trigger = {
        owner = { has_estate = estate_nobles }
        owner = { culture_group = ynnic_ruinborn_elf }
        OR = {
            has_province_modifier = aw_wendigo_2
            has_province_modifier = aw_wendigo_3
        }
    }
    
    option = {
        # oh, thank goodness
        name = aw_wendigo.120.a
        ai_chance = { factor = 100 }

        remove_province_modifier = aw_wendigo_2
        remove_province_modifier = aw_wendigo_3

        owner = { 
            add_legitimacy = 15
            add_stability_or_adm_power = yes
        }

    }
}

#121 - Hostile Knight kills wendigo. Malus nobility loyalty
province_event = {
    id = aw_wendigo.121
    title = aw_wendigo.121.t
    desc = aw_wendigo.121.d
    picture = BAD_WITH_MONARCH_eventPicture
    goto = ROOT
    
    hidden = no
    is_triggered_only = yes
    
    trigger = {
        owner = { has_estate = estate_nobles }
        owner = { culture_group = ynnic_ruinborn_elf }
        OR = {
            has_province_modifier = aw_wendigo_2
            has_province_modifier = aw_wendigo_3
        }

        NOT = {
            owner = {
                has_estate_loyalty_modifier = {
                    estate = estate_nobles
                    modifier = EST_VAL_AW_DISLOYAL_WENDIGO_SLAYER
                }
            }
        }
    }
    
    option = {
        name = aw_wendigo.121.a
        ai_chance = { factor = 100 }

        remove_province_modifier = aw_wendigo_2
        remove_province_modifier = aw_wendigo_3

        owner = { 
            add_estate_loyalty_modifier = {
                estate = estate_nobles
                desc = EST_VAL_AW_DISLOYAL_WENDIGO_SLAYER
                loyalty = -20
            }
            add_legitimacy = -10
        }

    }
}




############## 130s - Special Tier Up ###################


############## 140s - Other Special Utility ###################


############## 200s - Special Flavour ###################

#200 - Wendigo attacks
province_event = {
    id = aw_wendigo.200
    title = aw_wendigo.200.t
    desc = aw_wendigo.200.d
    picture = PLAGUE_eventPicture
    goto = ROOT
    
    hidden = no
    is_triggered_only = yes
    
    trigger = {
        OR = {
            has_province_modifier = aw_wendigo_2
        }
        NOT = { devastation = 50 }
    }
    
    option = {
        name = aw_wendigo.200.a
        ai_chance = { factor = 100 }

        add_devastation = 50

    }
}


#201 - Wendigo slaughter village
province_event = {
    id = aw_wendigo.201
    title = aw_wendigo.201.t
    desc = aw_wendigo.201.d
    picture = VILLAGE_RAIDED_eventPicture
    goto = ROOT
    
    hidden = no
    is_triggered_only = yes
    
    trigger = {
        OR = {
            has_province_modifier = aw_wendigo_2
        }

        development = 6
    }
    
    option = {
        name = aw_wendigo.201.a
        ai_chance = { factor = 100 }

        add_devastation = 50

        random_list = {
            33 = {
                add_base_tax = -1
            }
            33 = {
                add_base_production = -1
            }
            33 = {
                add_base_manpower = -1
            }
        }
    }
}

#202 - Sightings, Wendigo cultist rituals
province_event = {
    id = aw_wendigo.202
    title = aw_wendigo.202.t
    desc = aw_wendigo.202.d
    picture = IMPALED_SOLDIERS_eventPicture
    goto = ROOT
    
    hidden = no
    is_triggered_only = yes
    
    trigger = {
        OR = {
            has_province_modifier = aw_wendigo_1
        }
        culture_group = ynnic_ruinborn_elf
    }
    
    option = {
        name = aw_wendigo.202.a
        ai_chance = { factor = 100 }


        tooltip = { #this is fake as fuck. But this'll scare ye ;^)
            random = {
                chance = 50
                if = {
                    limit = { 
                        has_province_modifier = aw_wendigo_1
                    }
                    remove_province_modifier = aw_wendigo_1
                    add_permanent_province_modifier  = {
                        name = aw_wendigo_2
                        duration = -1  
                    }
                }
            }
        }
    }
}

#203 - Wendigo attacks teenagers in house -1 stability
province_event = {
    id = aw_wendigo.203
    title = aw_wendigo.203.t
    desc = aw_wendigo.203.d
    picture = IMPALED_SOLDIERS_eventPicture
    goto = ROOT
    
    hidden = no
    is_triggered_only = yes
    
    trigger = {
        OR = {
            has_province_modifier = aw_wendigo_2
            has_province_modifier = aw_wendigo_3
        }
        owner = { stability = -2 }
  
    }
    
    option = {
        name = aw_wendigo.203.a
        ai_chance = { factor = 100 }

        owner = { 
            add_stability = -1
        }

    }
}

#204 - Knights dishonoured by wendigo hunt failure
province_event = {
    id = aw_wendigo.204
    title = aw_wendigo.204.t
    desc = aw_wendigo.204.d
    picture = IMPALED_SOLDIERS_eventPicture
    goto = ROOT
    
    hidden = no
    is_triggered_only = yes
    
    trigger = {
        OR = {
            has_province_modifier = aw_wendigo_2
            has_province_modifier = aw_wendigo_3
        }
        owner = { stability = -2 }
        owner = { culture_group = ynnic_ruinborn_elf }
  
    }
    
    option = {
        name = aw_wendigo.204.a
        ai_chance = { factor = 100 }

        owner = { 
            add_stability = -1
            add_legitimacy = -10
        }

    }
}