namespace = ynn_worship

country_event = {
	id = ynn_worship.1
	title = ynn_worship.1.t
	desc = ynn_worship.1.d
	picture = CITY_VIEW_eventPicture

	major = no
	fire_only_once = yes
	hidden = yes

	is_triggered_only = yes
	trigger = { always = yes }

	option = { 
		name = ynn_worship.1.a
		ai_chance = { factor = 100 }
		clr_global_flag = ynn_cycle_timer
	}
}

country_event = {
    id = ynn_worship.2
    title = ynn_worship.2.t
    desc = ynn_worship.2.d
    picture = STREET_SPEECH_eventPicture

    hidden = yes
    mean_time_to_happen = {
        days = 1
    }
    
    trigger = {
        OR = {
            NOT = { has_global_flag = ynn_cycle_timer }
            had_global_flag = {
                flag = ynn_cycle_timer
				days = 1460
            }
        }
    }
    
    immediate = {
        set_global_flag = ynn_cycle_timer
    }
    
    option = {
        name = ynn_worship.2.a
        ai_chance = { factor = 100 }

		if = {
			limit = {
				NOT = {
					REB = {
						check_variable = {
							which = ynn_zodiac_tracker
							value = 16
						}
					}
				}
			}
			REB = { change_variable = { ynn_zodiac_tracker = 1 } }
		}
		else = {
			REB = { 
				subtract_variable = {
					which = ynn_zodiac_tracker
					value = 16
				}
			}
		}

        if = {
			limit = { has_global_flag = ynn_worship_16 }
			clr_global_flag = ynn_worship_16
			set_global_flag = ynn_worship_1
		}
		else_if = {
			limit = { has_global_flag = ynn_worship_1 }
			clr_global_flag = ynn_worship_1
			set_global_flag = ynn_worship_2
		}
		else_if = {
			limit = { has_global_flag = ynn_worship_2 }
			clr_global_flag = ynn_worship_2
			set_global_flag = ynn_worship_3
		}
		else_if = {
			limit = { has_global_flag = ynn_worship_3 }
			clr_global_flag = ynn_worship_3
			set_global_flag = ynn_worship_4
		}
		else_if = {
			limit = { has_global_flag = ynn_worship_4 }
			clr_global_flag = ynn_worship_4
			set_global_flag = ynn_worship_5
		}
		else_if = {
			limit = { has_global_flag = ynn_worship_5 }
			clr_global_flag = ynn_worship_5
			set_global_flag = ynn_worship_6
		}
		else_if = {
			limit = { has_global_flag = ynn_worship_6 }
			clr_global_flag = ynn_worship_6
			set_global_flag = ynn_worship_7
		}
		else_if = {
			limit = { has_global_flag = ynn_worship_7 }
			clr_global_flag = ynn_worship_7
			set_global_flag = ynn_worship_8
		}
		else_if = {
			limit = { has_global_flag = ynn_worship_8 }
			clr_global_flag = ynn_worship_8
			set_global_flag = ynn_worship_9
		}
		else_if = {
			limit = { has_global_flag = ynn_worship_9 }
			clr_global_flag = ynn_worship_9
			set_global_flag = ynn_worship_10
		}
		else_if = {
			limit = { has_global_flag = ynn_worship_10 }
			clr_global_flag = ynn_worship_10
			set_global_flag = ynn_worship_11
		}
		else_if = {
			limit = { has_global_flag = ynn_worship_11 }
			clr_global_flag = ynn_worship_11
			set_global_flag = ynn_worship_12
		}
		else_if = {
			limit = { has_global_flag = ynn_worship_12 }
			clr_global_flag = ynn_worship_12
			set_global_flag = ynn_worship_13
		}
		else_if = {
			limit = { has_global_flag = ynn_worship_13 }
			clr_global_flag = ynn_worship_13
			set_global_flag = ynn_worship_14
		}
		else_if = {
			limit = { has_global_flag = ynn_worship_14 }
			clr_global_flag = ynn_worship_14
			set_global_flag = ynn_worship_15
		}
		else_if = {
			limit = { has_global_flag = ynn_worship_15 }
			clr_global_flag = ynn_worship_15
			set_global_flag = ynn_worship_16
		}
		every_country = {
			limit = { religion = ynn_river_worship }
			country_event = { id = ynn_worship.3 }
       }
    }
}

country_event = {
	id = ynn_worship.3
	title = ynn_worship.3.t
	desc = ynn_worship.3.d
	picture = MALAYAN_PORT_eventPicture

	major = no
	hidden = yes

	immediate = {
		hidden_effect = {
			country_event = { id = ynn_worship.4 }
		}
    }

	is_triggered_only = yes
	trigger = { always = yes }

	option = { 
		name = ynn_worship.3.a
		ai_chance = { factor = 100 }
		trigger = { has_global_flag = ynn_worship_1 }
		change_personal_deity = ynn_worship_1
	}

	option = { 
		name = ynn_worship.3.b
		ai_chance = { factor = 100 }
		trigger = { has_global_flag = ynn_worship_2 }
		change_personal_deity = ynn_worship_2
	}

	option = { 
		name = ynn_worship.3.c
		ai_chance = { factor = 100 }
		trigger = { has_global_flag = ynn_worship_3 }
		change_personal_deity = ynn_worship_3
	}

	option = { 
		name = ynn_worship.3.e
		ai_chance = { factor = 100 }
		trigger = { has_global_flag = ynn_worship_4 }
		change_personal_deity = ynn_worship_4
	}

	option = { 
		name = ynn_worship.3.f
		ai_chance = { factor = 100 }
		trigger = { has_global_flag = ynn_worship_5 }
		change_personal_deity = ynn_worship_5
	}

	option = { 
		name = ynn_worship.3.g
		ai_chance = { factor = 100 }
		trigger = { has_global_flag = ynn_worship_6 }
		change_personal_deity = ynn_worship_6
	}

	option = { 
		name = ynn_worship.3.h
		ai_chance = { factor = 100 }
		trigger = { has_global_flag = ynn_worship_7 }
		change_personal_deity = ynn_worship_7
	}

	option = { 
		name = ynn_worship.3.i
		ai_chance = { factor = 100 }
		trigger = { has_global_flag = ynn_worship_8 }
		change_personal_deity = ynn_worship_8
	}

	option = { 
		name = ynn_worship.3.j
		ai_chance = { factor = 100 }
		trigger = { has_global_flag = ynn_worship_9 }
		change_personal_deity = ynn_worship_9
	}

	option = { 
		name = ynn_worship.3.k
		ai_chance = { factor = 100 }
		trigger = { has_global_flag = ynn_worship_10 }
		change_personal_deity = ynn_worship_10
	}

	option = { 
		name = ynn_worship.3.l
		ai_chance = { factor = 100 }
		trigger = { has_global_flag = ynn_worship_11 }
		change_personal_deity = ynn_worship_11
	}

	option = { 
		name = ynn_worship.3.m
		ai_chance = { factor = 100 }
		trigger = { has_global_flag = ynn_worship_12 }
		change_personal_deity = ynn_worship_12
	}

	option = { 
		name = ynn_worship.3.n
		ai_chance = { factor = 100 }
		trigger = { has_global_flag = ynn_worship_13 }
		change_personal_deity = ynn_worship_13
	}

	option = { 
		name = ynn_worship.3.o
		ai_chance = { factor = 100 }
		trigger = { has_global_flag = ynn_worship_14 }
		change_personal_deity = ynn_worship_14
	}

	option = { 
		name = ynn_worship.3.p
		ai_chance = { factor = 100 }
		trigger = { has_global_flag = ynn_worship_15 }
		change_personal_deity = ynn_worship_15
	}

	option = { 
		name = ynn_worship.3.q
		ai_chance = { factor = 100 }
		trigger = { has_global_flag = ynn_worship_16 }
		change_personal_deity = ynn_worship_16
	}
}

country_event = {
	id = ynn_worship.4
	title = ynn_worship.4.t
	desc = ynn_worship.4.d
	picture = MALAYAN_PORT_eventPicture

	major = no
	hidden = no

	immediate = {
		hidden_effect = {
			if = {
				limit = { has_global_flag = ynn_worship_1 }
				change_personal_deity = ynn_worship_1
			}
			else_if = {
				limit = { has_global_flag = ynn_worship_2 }
				change_personal_deity = ynn_worship_2
			}
			else_if = {
				limit = { has_global_flag = ynn_worship_3 }
				change_personal_deity = ynn_worship_3
			}
			else_if = {
				limit = { has_global_flag = ynn_worship_4 }
				change_personal_deity = ynn_worship_4
			}
			else_if = {
				limit = { has_global_flag = ynn_worship_5 }
				change_personal_deity = ynn_worship_5
			}
			else_if = {
				limit = { has_global_flag = ynn_worship_6 }
				change_personal_deity = ynn_worship_6
			}
			else_if = {
				limit = { has_global_flag = ynn_worship_7 }
				change_personal_deity = ynn_worship_7
			}
			else_if = {
				limit = { has_global_flag = ynn_worship_8 }
				change_personal_deity = ynn_worship_8
			}
			else_if = {
				limit = { has_global_flag = ynn_worship_9 }
				change_personal_deity = ynn_worship_9
			}
			else_if = {
				limit = { has_global_flag = ynn_worship_10 }
				change_personal_deity = ynn_worship_10
			}
			else_if = {
				limit = { has_global_flag = ynn_worship_11 }
				change_personal_deity = ynn_worship_11
			}
			else_if = {
				limit = { has_global_flag = ynn_worship_12 }
				change_personal_deity = ynn_worship_12
			}
			else_if = {
				limit = { has_global_flag = ynn_worship_13 }
				change_personal_deity = ynn_worship_13
			}
			else_if = {
				limit = { has_global_flag = ynn_worship_14 }
				change_personal_deity = ynn_worship_14
			}
			else_if = {
				limit = { has_global_flag = ynn_worship_15 }
				change_personal_deity = ynn_worship_15
			}
			else_if = {
				limit = { has_global_flag = ynn_worship_16 }
				change_personal_deity = ynn_worship_16
			}
		}
    }

	is_triggered_only = yes
	trigger = { always = yes }

	option = { 
		name = ynn_worship.4.a
		ai_chance = { factor = 100 }
		trigger = { has_global_flag = ynn_worship_1 }
		tooltip = { change_personal_deity = ynn_worship_1 }
	}

	option = { 
		name = ynn_worship.4.b
		ai_chance = { factor = 100 }
		trigger = { has_global_flag = ynn_worship_2 }
		tooltip = { change_personal_deity = ynn_worship_2 }
	}

	option = { 
		name = ynn_worship.4.c
		ai_chance = { factor = 100 }
		trigger = { has_global_flag = ynn_worship_3 }
		tooltip = { change_personal_deity = ynn_worship_3 }
	}

	option = { 
		name = ynn_worship.4.e
		ai_chance = { factor = 100 }
		trigger = { has_global_flag = ynn_worship_4 }
		tooltip = { change_personal_deity = ynn_worship_4 }
	}

	option = { 
		name = ynn_worship.4.f
		ai_chance = { factor = 100 }
		trigger = { has_global_flag = ynn_worship_5 }
		tooltip = { change_personal_deity = ynn_worship_5 }
	}

	option = { 
		name = ynn_worship.4.g
		ai_chance = { factor = 100 }
		trigger = { has_global_flag = ynn_worship_6 }
		tooltip = { change_personal_deity = ynn_worship_6 }
	}

	option = { 
		name = ynn_worship.4.h
		ai_chance = { factor = 100 }
		trigger = { has_global_flag = ynn_worship_7 }
		tooltip = { change_personal_deity = ynn_worship_7 }
	}

	option = { 
		name = ynn_worship.4.i
		ai_chance = { factor = 100 }
		trigger = { has_global_flag = ynn_worship_8 }
		tooltip = { change_personal_deity = ynn_worship_8 }
	}

	option = { 
		name = ynn_worship.4.j
		ai_chance = { factor = 100 }
		trigger = { has_global_flag = ynn_worship_9 }
		tooltip = { change_personal_deity = ynn_worship_9 }
	}

	option = { 
		name = ynn_worship.4.k
		ai_chance = { factor = 100 }
		trigger = { has_global_flag = ynn_worship_10 }
		tooltip = { change_personal_deity = ynn_worship_10 }
	}

	option = { 
		name = ynn_worship.4.l
		ai_chance = { factor = 100 }
		trigger = { has_global_flag = ynn_worship_11 }
		tooltip = { change_personal_deity = ynn_worship_11 }
	}

	option = { 
		name = ynn_worship.4.m
		ai_chance = { factor = 100 }
		trigger = { has_global_flag = ynn_worship_12 }
		tooltip = { change_personal_deity = ynn_worship_12 }
	}

	option = { 
		name = ynn_worship.4.n
		ai_chance = { factor = 100 }
		trigger = { has_global_flag = ynn_worship_13 }
		tooltip = { change_personal_deity = ynn_worship_13 }
	}

	option = { 
		name = ynn_worship.4.o
		ai_chance = { factor = 100 }
		trigger = { has_global_flag = ynn_worship_14 }
		tooltip = { change_personal_deity = ynn_worship_14 }
	}

	option = { 
		name = ynn_worship.4.p
		ai_chance = { factor = 100 }
		trigger = { has_global_flag = ynn_worship_15 }
		tooltip = { change_personal_deity = ynn_worship_15 }
	}

	option = { 
		name = ynn_worship.4.q
		ai_chance = { factor = 100 }
		trigger = { has_global_flag = ynn_worship_16 }
		tooltip = { change_personal_deity = ynn_worship_16 }
	}
}